"taxa","taxa_id"
"Anisoptera",1
"Caenidae",2
"Callibaetis m.",3
"Ceratopogonidae",4
"Chironomidae",5
"Cladocera",6
"Collembola",7
"Copepoda",8
"Corixidae",9
"Culicidae",10
"Dolichopodidae",11
"Dytiscidae",12
"Ephydridae",13
"Fallcoeon q.",14
"Fish",15
"Helicopsyche",16
"Homoptera",17
"Hydracarina",18
"Hydrophilidae",19
"Hydroptilidae",20
"Hydropsychidae",21
"Leptohyphes p.",22
"Mollusca",23
"Muscidae",24
"Nematoda",25
"Odontoceridae",26
"Oligochaeta",27
"Ostracoda",28
"Plecoptera",29
"Simuliidae",30
"Spiders",31
"Stratiomyidae",32
"Thysanoptera",33
"Tingidae",34
"Tipulidae",35
"Tricorythods d.",36
"Turbellaria",37
"Valiidae",38
"Zygoptera",39
"Acari",40
"Callibaetis",41
"Fallceon",42
"Gastropoda",43
"Lepidoptera",44
"Leptohypes",45
"other Coleo",46
"other Dip",47
"other Ephem",48
"other Trich",49
"Psephenidae",50
"Tabanidae",51
"Tipulidae",52
"Tricorythodes",53
"Stratiomyiidae",54
